//scripted by skyfear919@hotmail.com
//序号	NPC名字	NPC类型	Chr索引ID	小地图显示	坐标起点	坐标终点	NPC面向	区域	区域编号	NPC脚本	消息處理	检测状态
1	二号竞技场管理员	1	453	9	8200,4500	8200,4500	-90	二号竞技场	88	0	arena_talk03	0
2	竞技场报名管理员	1	424	0	8100,4600	8100,4600	0	二号竞技场	1	0	JingJi_talk01	0